<svg 
 xmlns="http://www.w3.org/2000/svg"
 xmlns:xlink="http://www.w3.org/1999/xlink"
 width="23px" height="19px">
<path fill-rule="evenodd"  fill="rgb(255, 255, 255)"
 d="M21.716,7.531 C18.909,9.322 16.779,10.714 15.324,11.706 C14.836,12.045 14.441,12.309 14.137,12.499 C13.833,12.689 13.429,12.882 12.924,13.080 C12.419,13.278 11.949,13.377 11.513,13.377 L11.500,13.377 L11.486,13.377 C11.050,13.377 10.580,13.278 10.075,13.080 C9.570,12.882 9.166,12.689 8.862,12.499 C8.558,12.309 8.163,12.045 7.675,11.706 C6.519,10.908 4.393,9.516 1.296,7.531 C0.808,7.225 0.376,6.873 -0.001,6.478 L-0.001,16.087 C-0.001,16.620 0.201,17.076 0.603,17.455 C1.005,17.834 1.489,18.024 2.053,18.024 L20.946,18.024 C21.511,18.024 21.994,17.834 22.396,17.455 C22.798,17.076 23.000,16.620 23.000,16.087 L23.000,6.478 C22.632,6.865 22.204,7.216 21.716,7.531 L21.716,7.531 ZM22.390,1.552 C21.983,1.173 21.502,0.984 20.946,0.984 L2.053,0.984 C1.394,0.984 0.887,1.193 0.532,1.613 C0.177,2.032 -0.001,2.557 -0.001,3.186 C-0.001,3.695 0.235,4.245 0.705,4.838 C1.176,5.431 1.676,5.897 2.207,6.236 C2.498,6.430 3.375,7.004 4.839,7.960 C6.301,8.917 7.423,9.653 8.201,10.169 C8.287,10.226 8.468,10.349 8.747,10.538 C9.024,10.728 9.256,10.882 9.440,10.999 C9.624,11.115 9.846,11.246 10.107,11.392 C10.368,11.537 10.614,11.646 10.845,11.718 C11.076,11.791 11.289,11.827 11.486,11.827 L11.500,11.827 L11.513,11.827 C11.709,11.827 11.923,11.791 12.154,11.718 C12.385,11.646 12.631,11.537 12.892,11.392 C13.153,11.246 13.375,11.115 13.559,10.999 C13.743,10.882 13.975,10.728 14.253,10.538 C14.531,10.349 14.713,10.226 14.798,10.169 C15.585,9.653 17.588,8.342 20.804,6.236 C21.429,5.824 21.951,5.328 22.371,4.747 C22.790,4.166 23.000,3.557 23.000,2.920 C23.000,2.387 22.796,1.932 22.390,1.552 Z"/>
</svg>